PS:
  9575441a-db68-4e57-81aa-f9b7b8930d32:
    C: BubblegumK.K
  2b13aa40-5476-48ec-801e-74bcf6a81ccb:
    C: BubblegumK.K
  750353ef-f9fa-359c-acf0-53bf584e76a2:
    C: YourReality
  e05670e8-8234-3ed5-89af-97df7b7b7adb:
    J: true
    C: NeverGonnaGiveYouUp
