{
  "gm4:root": {
    "criteria": {
      "automatic": "2021-09-05 14:10:37 +0000"
    },
    "done": true
  },
  "gm4_intro_song:intro_song": {
    "criteria": {
      "requirement": "2021-09-05 14:11:06 +0000"
    },
    "done": true
  },
  "global:root": {
    "criteria": {
      "trigger": "2021-09-05 14:10:37 +0000"
    },
    "done": true
  },
  "smoochypit:warppad/globalwarppads": {
    "criteria": {
      "trigger": "2021-09-05 14:10:37 +0000"
    },
    "done": true
  },
  "global:smoochypit": {
    "criteria": {
      "trigger": "2021-09-05 14:10:37 +0000"
    },
    "done": true
  },
  "minecraft:adventure/adventuring_time": {
    "criteria": {
      "minecraft:dark_forest": "2021-09-05 14:11:13 +0000",
      "minecraft:plains": "2021-09-05 14:10:37 +0000"
    },
    "done": false
  },
  "DataVersion": 2586
}